// Jest Snapshot v1, https://goo.gl/fbAQLP

exports[`renders correctly 1`] = `
<View
  style={
    Object {
      "alignItems": "center",
      "flex": 1,
      "flexDirection": "column",
      "justifyContent": "center",
    }
  }
>
  <RNSpinkit
    color={4294756174}
    size={60}
    style={
      Array [
        Object {
          "height": 60,
          "width": 60,
        },
        undefined,
      ]
    }
    type="Pulse"
  />
</View>
`;
